…
```r
data3%>%
  arrange(desc(sum_interval))
```

```
## # A tibble: 288 x 2
##    interval sum_interval
##       <dbl>        <dbl>
##  1      835        10927
##  2      840        10384
##  3      850         9720
##  4      845         9517
##  5      830         9397
##  6      820         9071
##  7      855         8852
##  8      815         8349
##  9      825         8236
## 10      900         7603
## # ... with 278 more rows
```
…
